[
  {
    "id": "shop_by_category_subitem_left1"
  },
  {
    "id": "shop_by_category_subitem_left2"
  },
  {
    "id": "shop_by_category_subitem_center"
  },
  {
    "id": "shop_by_category_subitem_right1"
  },
  {
    "id": "shop_by_category_subitem_right2"
  }
]