<svg width="10" height="20" viewBox="0 0 10 20" fill="none" xmlns="http://www.w3.org/2000/svg">
<path fill-rule="evenodd" clip-rule="evenodd" d="M9.55535 3.683L7.82345 3.68415C6.4653 3.68415 6.20195 4.3293 6.20195 5.27575V7.36415H9.4415L9.01945 10.6359H6.20195V19.0286H2.8244V10.6359H0V7.36415H2.8244V4.9526C2.8244 2.15235 4.53445 0.628601 7.0311 0.628601C8.2271 0.628601 9.2552 0.717151 9.55535 0.757401V3.683Z" fill="#666666"/>
</svg>
