<svg width="140" height="100" viewBox="0 0 140 100" fill="none" xmlns="http://www.w3.org/2000/svg">
<g clip-path="url(#clip0)">
<path fill-rule="evenodd" clip-rule="evenodd" d="M21.591 16.5273C13.8445 23.9128 8.17672 31.3557 9.78626 32.8903C11.3958 34.4248 19.2025 29.0252 26.949 21.6356C34.6954 14.2459 40.346 6.80708 38.7322 5.28074C37.1183 3.7544 29.3375 9.13762 21.591 16.5273ZM25.731 24.52C13.9693 35.7296 2.7585 42.4217 0.456083 40.2266C-1.84634 38.0314 5.19003 27.3388 16.9302 16.1252C28.6704 4.91146 39.9028 -1.78064 42.2052 0.418602C44.5076 2.61785 37.4755 13.3063 25.7138 24.52H25.731Z" fill="white"/>
<path fill-rule="evenodd" clip-rule="evenodd" d="M18.6171 57.1639C19.5467 58.0501 21.5995 57.845 24.3968 56.3761L22.6754 62.0342C12.5447 69.0094 5.15977 71.8816 2.81862 69.6372C-1.17941 65.8255 10.7803 46.8282 30.3272 28.1962C49.8741 9.56418 68.7711 -1.84235 72.7691 1.9694C76.3626 5.39546 67.0497 20.3594 50.7563 37.0096H47.4813C60.2973 24.7004 69.2746 12.7071 66.7656 10.315C64.2566 7.92295 51.3846 16.6707 38.362 29.103C25.3393 41.5353 16.0823 54.7472 18.6171 57.1639Z" fill="white"/>
<path fill-rule="evenodd" clip-rule="evenodd" d="M31.812 41.605L28.4854 53.4423H32.2639L33.4173 49.3434H42.2956L43.0616 46.6271H34.179L34.8073 44.391H44.1547L44.938 41.605H31.812Z" fill="#36B289"/>
<path fill-rule="evenodd" clip-rule="evenodd" d="M46.2161 41.605L42.8894 53.4423H46.853L50.1797 41.605H46.2161Z" fill="#36B289"/>
<path fill-rule="evenodd" clip-rule="evenodd" d="M51.2985 41.605L50.4507 44.6207H55.9808L53.5019 53.4423H57.4655L59.9444 44.6207H65.4745L66.3223 41.605H51.2985Z" fill="#36B289"/>
<path fill-rule="evenodd" clip-rule="evenodd" d="M67.4673 41.605L64.1406 53.4423H67.9923L70.3851 44.6002H70.794L74.8436 53.4423H81.4195L84.7419 41.605H80.8902L78.5017 50.4266H78.1144L74.0948 41.605H67.4673Z" fill="#36B289"/>
<path fill-rule="evenodd" clip-rule="evenodd" d="M86.7171 41.605L83.3904 53.4423H97.2049L98.0011 50.603H87.9091L88.4385 48.7197H97.9537L98.6853 46.1143H89.1744L89.6564 44.391H99.6752L100.458 41.605H86.7171Z" fill="#36B289"/>
<path fill-rule="evenodd" clip-rule="evenodd" d="M99.2919 49.5241L99.1327 50.0903C98.9279 50.6827 98.8361 51.3052 98.8616 51.9285C98.8801 52.1274 98.944 52.3201 99.0488 52.493C99.1536 52.666 99.2968 52.815 99.4684 52.9296C99.7771 53.1367 100.13 53.2768 100.501 53.3399C101.125 53.4612 101.759 53.5339 102.395 53.5574C103.195 53.5984 104.237 53.6189 105.511 53.6189C107.335 53.6189 108.715 53.5929 109.651 53.541C110.319 53.5277 110.983 53.434 111.626 53.262C112.313 53.053 112.914 52.6458 113.347 52.0967C113.861 51.3806 114.229 50.5789 114.432 49.7333C114.639 49.116 114.731 48.4688 114.703 47.8213C114.688 47.6119 114.626 47.408 114.521 47.2233C114.416 47.0386 114.272 46.8774 114.096 46.7504C113.855 46.5735 113.576 46.4489 113.279 46.3852C112.752 46.2735 112.216 46.2062 111.678 46.1842C110.959 46.139 109.93 46.0939 108.596 46.057C107.262 46.02 106.371 45.9872 105.773 45.9544C105.402 45.9495 105.032 45.9124 104.667 45.8436C104.592 45.8316 104.52 45.8026 104.459 45.7591C104.398 45.7156 104.348 45.6587 104.314 45.5933C104.257 45.4268 104.257 45.247 104.314 45.0804C104.354 44.8351 104.483 44.6112 104.68 44.4486C104.992 44.2753 105.348 44.186 105.709 44.1901C106.216 44.149 107 44.1326 108.045 44.1367C108.928 44.1367 109.599 44.1367 110.06 44.1367C110.389 44.1386 110.718 44.1605 111.045 44.2024C111.189 44.2148 111.328 44.2599 111.45 44.3337C111.505 44.3658 111.552 44.4101 111.585 44.463C111.619 44.5158 111.639 44.5756 111.643 44.6373C111.64 44.8644 111.609 45.0904 111.549 45.3102H115.194C115.237 45.1912 115.275 45.0804 115.306 44.9779C115.336 44.8753 115.357 44.8014 115.366 44.7604C115.543 44.2305 115.62 43.6748 115.594 43.1192C115.578 42.9322 115.523 42.7502 115.432 42.5839C115.341 42.4176 115.216 42.2703 115.065 42.1509C114.785 41.9432 114.462 41.795 114.118 41.7159C113.553 41.5893 112.976 41.5137 112.396 41.4903C111.656 41.4492 110.691 41.4287 109.5 41.4287C108.015 41.4287 106.828 41.4287 105.928 41.4821C105.29 41.496 104.653 41.5494 104.022 41.6421C103.196 41.7671 102.438 42.1529 101.87 42.7376C101.252 43.4748 100.822 44.3386 100.613 45.261C100.226 46.5411 100.247 47.4301 100.678 47.928C101.108 48.4285 102.072 48.687 103.574 48.7076L104.568 48.7404L106.552 48.8306L109.504 48.9373C109.897 48.8983 110.294 48.9651 110.649 49.1302C110.821 49.2587 110.851 49.4967 110.739 49.8441C110.702 50.118 110.577 50.3743 110.382 50.5785C110.045 50.778 109.651 50.8727 109.255 50.8494C108.669 50.8822 107.71 50.8945 106.384 50.8904C105.524 50.8904 104.848 50.8904 104.396 50.8904C104.075 50.889 103.754 50.8643 103.436 50.8165C103.289 50.7951 103.148 50.7403 103.027 50.6565C102.965 50.6183 102.914 50.5654 102.879 50.5028C102.845 50.4403 102.827 50.3703 102.829 50.2995C102.84 50.0415 102.888 49.786 102.972 49.5405L99.2919 49.5241Z" fill="#36B289"/>
<path fill-rule="evenodd" clip-rule="evenodd" d="M115.62 49.5243L115.461 50.0905C115.256 50.6829 115.164 51.3054 115.19 51.9287C115.208 52.1276 115.272 52.3203 115.377 52.4932C115.482 52.6662 115.625 52.8152 115.797 52.9298C116.105 53.1369 116.458 53.277 116.829 53.3401C117.453 53.4614 118.087 53.5341 118.723 53.5576C119.529 53.5986 120.568 53.6191 121.839 53.6191C123.663 53.6191 125.043 53.5931 125.979 53.5412C126.647 53.5279 127.311 53.4342 127.954 53.2622C128.641 53.0532 129.242 52.646 129.676 52.0969C130.193 51.3827 130.561 50.5803 130.76 49.7335C130.967 49.1162 131.059 48.469 131.031 47.8215C131.016 47.6121 130.954 47.4082 130.849 47.2235C130.745 47.0388 130.6 46.8776 130.424 46.7506C130.183 46.5737 129.904 46.449 129.607 46.3854C129.08 46.2737 128.545 46.2064 128.006 46.1844C127.287 46.1392 126.259 46.0941 124.924 46.0572C123.59 46.0202 122.699 45.9874 122.101 45.9546C121.731 45.95 121.362 45.9129 121 45.8438C120.923 45.8324 120.851 45.8037 120.789 45.7601C120.727 45.7166 120.677 45.6594 120.642 45.5935C120.582 45.4274 120.582 45.2468 120.642 45.0806C120.68 44.8358 120.808 44.6118 121.004 44.4488C121.316 44.2761 121.671 44.1868 122.032 44.1903C122.54 44.1492 123.323 44.1328 124.369 44.1369C125.251 44.1369 125.923 44.1369 126.383 44.1369C126.713 44.1388 127.042 44.1607 127.369 44.2026C127.513 44.215 127.651 44.2601 127.773 44.3339C127.829 44.366 127.875 44.4103 127.909 44.4632C127.943 44.516 127.963 44.5758 127.967 44.6375C127.967 44.8648 127.935 45.091 127.872 45.3104H131.517C131.561 45.1914 131.599 45.0806 131.629 44.9781C131.66 44.8755 131.681 44.8016 131.694 44.7606C131.87 44.2305 131.946 43.6748 131.918 43.1194C131.904 42.9321 131.849 42.7495 131.758 42.5829C131.667 42.4164 131.541 42.2694 131.388 42.151C131.105 41.9391 130.776 41.7892 130.424 41.712C129.859 41.5854 129.283 41.5098 128.703 41.4864C127.967 41.4453 126.982 41.4248 125.807 41.4248C124.32 41.4248 123.131 41.4426 122.239 41.4781C121.599 41.4921 120.961 41.5456 120.328 41.6382C119.502 41.7613 118.743 42.1474 118.176 42.7337C117.555 43.4696 117.124 44.3337 116.915 45.2571C116.528 46.5372 116.55 47.4262 116.98 47.9241C117.41 48.4219 118.376 48.6818 119.876 48.7037L120.87 48.7365L122.859 48.8267L125.807 48.9334C126.2 48.894 126.596 48.9608 126.951 49.1263C127.124 49.2548 127.154 49.4928 127.042 49.8402C127.006 50.1146 126.881 50.3715 126.685 50.5746C126.347 50.7741 125.953 50.8688 125.557 50.8455C124.983 50.8783 124.026 50.892 122.687 50.8865C121.826 50.8865 121.15 50.8865 120.698 50.8865C120.377 50.8851 120.056 50.8604 119.739 50.8126C119.591 50.7912 119.451 50.7364 119.33 50.6526C119.268 50.6139 119.218 50.5608 119.184 50.4983C119.15 50.4358 119.134 50.366 119.136 50.2956C119.144 50.0377 119.191 49.7822 119.274 49.5366L115.62 49.5243Z" fill="#36B289"/>
<path fill-rule="evenodd" clip-rule="evenodd" d="M68.005 61.3903L67.3552 63.7003H72.2268L72.1322 64.0327C72.0845 64.3709 71.9351 64.6888 71.7018 64.9477C71.3214 65.1922 70.8691 65.3144 70.4107 65.2964C69.7709 65.3402 68.7424 65.3593 67.325 65.3539L65.1733 65.3169C64.8085 65.3164 64.4443 65.2875 64.0844 65.2308C63.8959 65.2045 63.7219 65.1194 63.5895 64.9887C63.4967 64.8737 63.4326 64.74 63.402 64.5978C63.3714 64.4556 63.3752 64.3087 63.4131 64.1681C63.518 63.4741 63.6763 62.7884 63.8865 62.1165C64.0436 61.3811 64.2996 60.6682 64.6482 59.9953C64.795 59.7713 64.9949 59.5833 65.2319 59.4464C65.4689 59.3096 65.7362 59.2277 66.0125 59.2075C67.0464 59.093 68.0881 59.0545 69.1283 59.0926C70.4882 59.0926 71.4493 59.1131 72.0117 59.1541C72.3709 59.1447 72.7257 59.2314 73.0359 59.4044C73.0829 59.4384 73.1206 59.4825 73.1461 59.5332C73.1715 59.5838 73.1839 59.6396 73.1822 59.6957C73.1638 59.9264 73.1206 60.1546 73.0531 60.3768H76.7499C76.942 59.7512 77.0717 59.1096 77.1372 58.4607C77.1843 58.0906 77.1075 57.7158 76.9177 57.3898C76.7002 57.0445 76.3571 56.7874 75.9537 56.6677C75.2801 56.4556 74.5794 56.3314 73.8708 56.2984C72.9584 56.2245 71.7491 56.1876 70.2558 56.1917C68.3048 56.1917 66.7469 56.2382 65.5821 56.3312C64.6301 56.379 63.7005 56.624 62.8579 57.0493C62.1746 57.4654 61.6415 58.0711 61.3301 58.7849C60.8659 59.8166 60.4959 60.8846 60.2241 61.977C59.8712 63.2285 59.6259 64.205 59.4968 64.9025C59.3692 65.4174 59.3458 65.9508 59.428 66.474C59.5102 66.8038 59.7132 67.0948 60.0003 67.2946C60.3127 67.5359 60.6772 67.7082 61.0676 67.7993C61.6913 67.9424 62.3287 68.0249 62.9698 68.0455C63.7875 68.0906 64.8849 68.1152 66.2621 68.1111C67.3509 68.1111 68.2503 68.1111 68.969 68.0865C69.6877 68.0619 70.2902 68.0332 70.7851 67.988C71.2488 67.9482 71.7099 67.8852 72.1666 67.7993C72.8667 67.6862 73.5246 67.4036 74.0774 66.9787C74.6094 66.5478 75.0094 65.9878 75.235 65.358C75.3082 65.161 75.4201 64.8451 75.5578 64.4102C75.6955 63.9752 75.8461 63.5157 75.9882 63.0151C76.1302 62.5145 76.2722 62.0714 76.3841 61.6734L76.4745 61.3616L68.005 61.3903ZM44.3998 56.3681L42.9022 61.7021L42.5364 63.0397L42.3815 63.6224L42.2997 63.9629C42.1344 64.5917 42.0392 65.2353 42.0157 65.8832C42.001 66.2707 42.1188 66.6523 42.3513 66.9705C42.5916 67.3034 42.939 67.5526 43.3412 67.6803C44.0025 67.8861 44.6903 68.0048 45.3854 68.0332C46.2891 68.1043 47.507 68.1371 49.0391 68.1316C49.973 68.1316 50.7605 68.1316 51.3932 68.107C52.0258 68.0824 52.5723 68.0578 53.0242 68.0209C53.4761 67.9839 53.8849 67.9224 54.2594 67.8526C54.974 67.7228 55.6432 67.4246 56.2061 66.9854C56.7691 66.5461 57.2079 65.9796 57.4827 65.3375C57.5903 65.0831 57.685 64.841 57.7668 64.6153C57.8485 64.3896 57.9604 64.0573 58.0982 63.6306C58.2359 63.2039 58.4252 62.5597 58.6834 61.7021L60.1854 56.3681H56.4499L54.9522 61.7021C54.9135 61.8334 54.8619 62.014 54.7887 62.2437L54.5778 62.9043C54.4606 63.2985 54.3094 63.6827 54.1259 64.0532C54.0161 64.2684 53.8573 64.4576 53.6612 64.6071C53.322 64.851 52.9147 64.9938 52.4906 65.0174C51.5959 65.1076 50.696 65.1432 49.7965 65.1241C48.9993 65.138 48.2019 65.1092 47.408 65.0379C47.0104 65.0292 46.6231 64.9156 46.2891 64.7097C46.1899 64.6225 46.1154 64.5129 46.0725 64.391C46.0296 64.269 46.0197 64.1387 46.0438 64.0122C46.0517 63.8747 46.0675 63.7377 46.0911 63.6019C46.0911 63.4747 46.1557 63.2736 46.2246 62.9987L46.5645 61.6898L48.0622 56.3558L44.3998 56.3681ZM28.6702 65.1856L29.2125 63.2531H34.4499H35.9648H36.5673C36.6355 63.2572 36.7031 63.2668 36.7696 63.2818C36.8504 63.2912 36.9273 63.3203 36.9929 63.3663C37.0585 63.4123 37.1105 63.4736 37.144 63.5444C37.1932 63.7461 37.1797 63.9571 37.1053 64.1517C37.0567 64.356 36.9676 64.5496 36.8427 64.722C36.7336 64.8603 36.5838 64.9645 36.4124 65.0215C36.3157 65.0611 36.2147 65.09 36.1111 65.1077C35.8954 65.1308 35.6784 65.1417 35.4613 65.1405L33.8905 65.161L28.6702 65.1856ZM29.8623 60.9431L30.383 59.1008H35.599H36.7954H37.3032C37.3742 59.1026 37.4448 59.1108 37.5141 59.1254C37.5915 59.1359 37.6644 59.1662 37.7251 59.2132C37.7857 59.2602 37.8318 59.322 37.8584 59.3921C37.9049 59.5811 37.8945 59.7788 37.8283 59.9624C37.7788 60.1496 37.6958 60.3273 37.583 60.4876C37.4864 60.6187 37.3518 60.7199 37.1956 60.7789C36.9808 60.8492 36.7557 60.8866 36.5286 60.8897C36.2101 60.8897 35.7238 60.9185 35.0783 60.9185L29.8623 60.9431ZM24.3752 67.9634H33.1244C34.4586 67.9634 35.4441 67.9552 36.081 67.9388C36.5339 67.9375 36.9865 67.9128 37.4366 67.8649C37.6872 67.8344 37.9338 67.7794 38.1725 67.7008C38.7415 67.5403 39.2429 67.213 39.6056 66.7653C40.0362 66.1916 40.342 65.5415 40.5051 64.8533C40.7776 63.9369 40.8164 63.2709 40.6213 62.8551C40.4276 62.4448 39.9542 62.1699 39.1968 62.055C39.7786 61.9406 40.3075 61.6533 40.7074 61.2344C41.1299 60.6926 41.4236 60.0695 41.5681 59.4085C41.8693 58.3704 41.8865 57.6319 41.6154 57.1847C41.3443 56.7374 40.7246 56.4912 39.7606 56.4379C39.6013 56.4379 39.4378 56.4379 39.2743 56.4133C39.1107 56.3887 38.8138 56.4133 38.4135 56.4133H36.3693H27.6158L24.3752 67.9634Z" fill="white"/>
<path d="M22.7144 72.3371H37.7511C35.7628 75.9478 35.014 78.7214 36.2836 79.9318C38.388 81.9341 45.2221 78.5409 53.9283 72.3986H125.135C127.761 72.3986 130.278 71.4044 132.135 69.6346C133.991 67.8648 135.034 65.4644 135.034 62.9616V46.6724C135.034 44.1695 133.991 41.7691 132.135 39.9994C130.278 38.2296 127.761 37.2353 125.135 37.2353L100.579 37.264C107.086 28.8774 110.477 22.3494 108.394 20.343C105.472 17.5611 93.134 24.9794 78.6997 37.0671H64.5581C89.8202 15.0582 112.272 2.54386 117.608 7.63166C120.871 10.7418 117.217 20.0558 108.382 32.5086H125.135C129.078 32.5086 132.859 34.0017 135.646 36.6595C138.434 39.3172 140 42.9219 140 46.6806V62.9698C140.001 64.831 139.617 66.6741 138.87 68.3938C138.123 70.1135 137.028 71.676 135.648 72.9921C134.267 74.3082 132.628 75.3521 130.825 76.0641C129.021 76.7761 127.088 77.1423 125.135 77.1418H56.1748C34.7945 94.3049 16.9691 103.352 12.2782 98.888C8.89985 95.6343 12.984 85.6597 22.7144 72.3371Z" fill="white"/>
</g>
<defs>
<clipPath id="clip0">
<rect width="140" height="100" fill="white"/>
</clipPath>
</defs>
</svg>
