<svg width="24" height="24" viewBox="0 0 24 24" fill="none" xmlns="http://www.w3.org/2000/svg">
<path fill-rule="evenodd" clip-rule="evenodd" d="M17 1C20.3137 1 23 3.81421 23 7.28571C23 13.5697 12 23 12 23C12 23 1 13.571 1 7.28571C1 3.81421 3.68629 1 7 1C9.08752 1 10.926 2.11683 12.0008 3.81125C13.074 2.11683 14.9125 1 17 1Z" stroke="black"/>
</svg>
